﻿elementId,filename,source,sample_start,sample_end,side,modulation_cycle_number,half_modulation_cycle_group,click_number,dominant_kHz,note
1,PAN24_01/ch2/T0000262.wav,moth,1228736,1229000,ips,1,1,1,35156,
2,PAN24_01/ch2/T0000262.wav,moth,1229000,1229267,con,2,1,1,42969,
3,PAN24_01/ch2/T0000262.wav,moth,1229775,1230069,con,2,1,2,42969,
4,PAN24_01/ch2/T0000262.wav,moth,1260156,1260369,ips,3,1,1,44922,
5,PAN24_01/ch2/T0000262.wav,moth,1260860,1261160,ips,3,1,2,42969,
6,PAN24_01/ch2/T0000262.wav,moth,1265293,1265644,ips,4,1,1,46875,
7,PAN24_01/ch2/T0000262.wav,moth,1266787,1267113,ips,4,1,2,46875,
8,PAN24_01/ch2/T0000262.wav,moth,1272373,1272647,ips,5,1,1,42969,
9,PAN24_01/ch2/T0000262.wav,moth,1281000,1281315,ips,6,1,1,42969,
10,PAN24_01/ch2/T0000262.wav,moth,1281659,1281948,ips,6,1,2,42969,
11,PAN24_01/ch2/T0000262.wav,moth,1284172,1284500,ips,7,1,1,46875